﻿{
  "set": "Dual Resonance",
  "code": "dra",
  "description": "The base set of cards in Dual Resonance.",
  "ability_lookup": "DualResonance.Abilities",
  "commanders": [
    {
      "eng": {
        "name": "Copper Bitner",
        "epithet": "Exiled Knight",
        "flavor": "A young woman from Midway Valley. Seeks her father."
      },
      "spa": {
        "name": "Cobriza Bitner",
        "epithet": "Caballero Exiliada",
        "flavor": "Una joven del Valle Midway. En busca de su padre."
      },
      "gpt": 4,
      "rpt": 4,
      "primary": "barrier",
      "secondary": "burst"
    },
    {
      "eng": {
        "name": "Runner",
        "epithet": "Penitent Outlaw",
        "flavor": "An aeran smuggler with a salacious past trying to change his ways."
      },
      "spa": {
        "name": "Corredor",
        "epithet": "Criminal penitente",
        "flavor": "Un traficador con un pasado lascivo, pero quiere cambiar."
      },
      "gpt": 5,
      "rpt": 3,
      "primary": "psyche",
      "secondary": "triage"
    },
    {
      "eng": {
        "name": "Tamin",
        "epithet": "Lost Schirip",
        "flavor": "A being not of this world. She was recently freed from Raider activity."
      },
      "spa": {
        "name": "Tamin",
        "epithet": "Squiripa perdida",
        "flavor": "Un ser quien no es de este mundo. Hace poco que fue liberada de los Invasores."
      },
      "gpt": 2,
      "rpt": 6,
      "primary": "burst",
      "secondary": "distort"
    },
    {
      "eng": {
        "name": "Almanaught",
        "epithet": "Terror Incarnate",
        "flavor": "The apparent leader of the Raiders, though not even they fully know his motives."
      },
      "spa": {
        "name": "Almanaught",
        "epithet": "Incarnación del horror",
        "flavor": "El líder de los Invasores, aunque no entienden su motivación."
      },
      "gpt": 3,
      "rpt": 5,
      "primary": "distort",
      "secondary": "psyche"
    },
    {
      "eng": {
        "name": "Princess Ferian",
        "epithet": "Cunning Heiress",
        "flavor": "The heir to the Resonant Throne. Her lust for power knows no bounds."
      },
      "spa": {
        "name": "La Princesa Ferían",
        "epithet": "Heredera astuta",
        "flavor": "La heredera al Trono Resonante. Su deseo por poder no tiene limites."
      },
      "gpt": 4,
      "rpt": 4,
      "primary": "triage",
      "secondary": "barrier"
    }
  ],
  "units": [
    {
      "id": 1,
      "eng": {
        "name": "Selfless Compatriot",
        "flavor": "Truly, none gave of her life as much as she had."
      },
      "hp": 4,
      "ap": 2,
      "wp": 5,
      "cost": 5,
      "a": null,
      "b": null
    },
    {
      "id": 2,
      "eng": {
        "name": "Resonance Professor",
        "flavor": "Dr. Trebeg was never known for giving out extra credit."
      },
      "hp": 1,
      "ap": 1,
      "wp": 5,
      "cost": 2,
      "a": "MindBlow",
      "b": null
    },
    {
      "id": 3,
      "eng": {
        "name": "Redpetal Girl",
        "flavor": "Passifleur stayed a naturalist not for spiritual nourishment, but for an excuse."
      },
      "hp": 2,
      "ap": 1,
      "wp": 4,
      "cost": 1,
      "a": "Beguile",
      "b": null
    },
    {
      "id": 4,
      "eng": {
        "name": "Pyro Gunner",
        "flavor": "Foros had learned early on to protect himself from the flames."
      },
      "hp": 3,
      "ap": 3,
      "wp": 1,
      "cost": 2,
      "a": "SmallPayload",
      "b": null
    },
    {
      "id": 5,
      "eng": {
        "name": "Cloud Pilot",
        "flavor": "Ribbon's first love was and remains seeing the tops of clouds."
      },
      "spa": {
        "name": "Piloto de las nubes",
        "flavor": "El amor de Cinta siempre era el ver la superficie de las nubes."
      },
      "hp": 1,
      "ap": 3,
      "wp": 3,
      "cost": 1,
      "a": "SmallPayload",
      "b": null
    },
    {
      "id": 6,
      "eng": {
        "name": "Enticing Assassin",
        "flavor": "Lyrio's strategy: First, win their heart. Second, stab it."
      },
      "spa": {
        "name": "Sicaria Tentadora",
        "flavor": "La estratagema de Lili: Primero, capturar su corazón. Segundo, apuñalo."
      },
      "hp": 6,
      "ap": 6,
      "wp": 6,
      "cost": 6,
      "a": "Beguile",
      "b": null
    },
    {
      "id": 7,
      "eng": {
        "name": "Loyal Squire",
        "flavor": "No squire ever was or would be as loyal as Amarine was to Copper."
      },
      "spa": {
        "name": "Escudero leal",
        "flavor": "Ningún escudero era ni será tan leal como lo fue Amarina a Cobriza."
      },
      "hp": 2,
      "ap": 2,
      "wp": 2,
      "cost": 2,
      "a": null,
      "b": null
    },
    {
      "id": 8,
      "eng": {
        "name": "Bee Girl",
        "flavor": "Triss often made optimists happier and pessimists saltier."
      },
      "spa": {
        "name": "Niña Abeja",
        "flavor": "Con Triss, se hizo a los optimistas más felicidad y a los pesimistas más enojo."
      },
      "hp": 4,
      "ap": 1,
      "wp": 4,
      "cost": 3,
      "a": "Encourage",
      "b": "Discourage"
    },
    {
      "id": 9,
      "eng": {
        "name": "Bittersweet Sage",
        "flavor": "Samlock's blessings became curses for others."
      },
      "hp": 2,
      "ap": 1,
      "wp": 5,
      "cost": 3,
      "a": "HemlockBlessing",
      "b": "RefreshingAroma"
    },
    {
      "id": 10,
      "eng": {
        "name": "Silvermaiden",
        "flavor": "Aesk: the Metalwrought Made of Silver."
      },
      "hp": 2,
      "ap": 3,
      "wp": 4,
      "cost": 8,
      "a": "Metalwrought",
      "b": "SilverMirror"
    },
    {
      "id": 11,
      "eng": {
        "name": "Low Gatekeeper",
        "flavor": "Just a lowly gatekeeper."
      },
      "hp": 2,
      "ap": 1,
      "wp": 2,
      "cost": 1,
      "a": null,
      "b": null
    },
    {
      "id": 12,
      "eng": {
        "name": "Dark End Raider",
        "flavor": "A captain in Almanaught's forces and a brute."
      },
      "hp": 4,
      "ap": 5,
      "wp": 4,
      "cost": 5,
      "a": null,
      "b": null
    },
    {
      "id": 13,
      "eng": {
        "name": "Whirling Specter",
        "flavor": "Ghosts are just legends... right?"
      },
      "spa": {
        "name": "Espectro que gira",
        "flavor": "Los fantasmas son leyendas... ¿Verdad?"
      },
      "hp": 2,
      "ap": 5,
      "wp": 2,
      "cost": 3,
      "a": null,
      "b": null
    },
    {
      "id": 14,
      "eng": {
        "name": "Warp Gladiator",
        "flavor": "Her ideals are warped, and she thirsts for blood."
      },
      "hp": 5,
      "ap": 5,
      "wp": 2,
      "cost": 3,
      "a": null,
      "b": null
    },
    {
      "id": 15,
      "eng": {
        "name": "Will Breaker",
        "flavor": "A lieutenant of Almanaught. His cunning knows no bounds."
      },
      "hp": 3,
      "ap": 3,
      "wp": 7,
      "cost": 4,
      "a": null,
      "b": null
    },
    {
      "id": 16,
      "eng": {
        "name": "Shatter Bolt",
        "flavor": "Made of pure energy, hated, and confusion."
      },
      "hp": 4,
      "ap": 10,
      "wp": 3,
      "cost": 6,
      "a": null,
      "b": null
    },
    {
      "id": 17,
      "eng": {
        "name": "Spireknight",
        "flavor": "He is loyal to only one master, and it is not honor."
      },
      "hp": 6,
      "ap": 4,
      "wp": 6,
      "cost": 5,
      "a": null,
      "b": null
    },
    {
      "id": 18,
      "eng": {
        "name": "Ekethus",
        "flavor": "A guttural roar pierced the darkness, and the Raiders knew the end was nigh."
      },
      "spa": {
        "name": "Ekethus",
        "flavor": "Un rugido gutural hizo temblar la tierra, y los Invasors sabían que el fin se acercaba."
      },
      "hp": 10,
      "ap": 10,
      "wp": 10,
      "cost": 10,
      "a": null,
      "b": null
    },
    {
      "id": 19,
      "eng": {
        "name": "Memorialized Soul",
        "flavor": "Gone, but not forgotten."
      },
      "hp": 3,
      "ap": 3,
      "wp": 3,
      "cost": 3,
      "a": null,
      "b": null
    },
    {
      "id": 20,
      "eng": {
        "name": "Peacekeeper Agent",
        "flavor": "As long as the Pyran Cult was a threat, Forzine would not rest."
      },
      "hp": 2,
      "ap": 4,
      "wp": 5,
      "cost": 3,
      "a": "Detain",
      "b": "Shootout"
    }
  ]
}
